The target system is: Android - 1 - i686
The host system is: Windows - 10.0.19044 - AMD64
Detecting C compiler ABI info compiled with the following output:
Change Dir: D:/Github/tet_count_down/nativelib/.cxx/cmake/release/x86/CMakeFiles/CMakeTmp

Run Build Command(s):C:\Users\Thanh\AppData\Local\Android\Sdk\cmake\3.18.1\bin\ninja.exe cmTC_14a8c && [1/2] Building C object CMakeFiles/cmTC_14a8c.dir/CMakeCCompilerABI.c.o
Android (7019983 based on r365631c3) clang version 9.0.9 (https://android.googlesource.com/toolchain/llvm-project a2a1e703c0edb03ba29944e529ccbf457742737b) (based on LLVM 9.0.9svn)
Target: i686-none-linux-android23
Thread model: posix
InstalledDir: C:\Users\Thanh\AppData\Local\Android\Sdk\ndk\21.4.7075529\toolchains\llvm\prebuilt\windows-x86_64\bin
Found candidate GCC installation: C:/Users/Thanh/AppData/Local/Android/Sdk/ndk/21.4.7075529/toolchains/llvm/prebuilt/windows-x86_64/lib/gcc/i686-linux-android\4.9.x
Found candidate GCC installation: C:/Users/Thanh/AppData/Local/Android/Sdk/ndk/21.4.7075529/toolchains/llvm/prebuilt/windows-x86_64/lib/gcc/x86_64-linux-android\4.9.x
Selected GCC installation: C:/Users/Thanh/AppData/Local/Android/Sdk/ndk/21.4.7075529/toolchains/llvm/prebuilt/windows-x86_64/lib/gcc/i686-linux-android/4.9.x
Candidate multilib: .;@m32
Selected multilib: .;@m32
 "C:\\Users\\Thanh\\AppData\\Local\\Android\\Sdk\\ndk\\21.4.7075529\\toolchains\\llvm\\prebuilt\\windows-x86_64\\bin\\clang.exe" -cc1 -triple i686-none-linux-android23 -emit-obj -mrelax-all -mnoexecstack -disable-free -disable-llvm-verifier -discard-value-names -main-file-name CMakeCCompilerABI.c -mrelocation-model pic -pic-level 2 -pic-is-pie -mthread-model posix -mdisable-fp-elim -masm-verbose -mconstructor-aliases -munwind-tables -fuse-init-array -target-cpu i686 -target-feature +ssse3 -dwarf-column-info -debug-info-kind=limited -dwarf-version=4 -debugger-tuning=gdb -v -ffunction-sections -fdata-sections -coverage-notes-file "D:\\Github\\tet_count_down\\nativelib\\.cxx\\cmake\\release\\x86\\CMakeFiles\\CMakeTmp\\CMakeFiles/cmTC_14a8c.dir/CMakeCCompilerABI.c.gcno" -resource-dir "C:\\Users\\Thanh\\AppData\\Local\\Android\\Sdk\\ndk\\21.4.7075529\\toolchains\\llvm\\prebuilt\\windows-x86_64\\lib64\\clang\\9.0.9" -dependency-file "CMakeFiles\\cmTC_14a8c.dir\\CMakeCCompilerABI.c.o.d" -sys-header-deps -MT CMakeFiles/cmTC_14a8c.dir/CMakeCCompilerABI.c.o -D ANDROID -D _FORTIFY_SOURCE=2 -isysroot C:/Users/Thanh/AppData/Local/Android/Sdk/ndk/21.4.7075529/toolchains/llvm/prebuilt/windows-x86_64/sysroot -internal-isystem C:/Users/Thanh/AppData/Local/Android/Sdk/ndk/21.4.7075529/toolchains/llvm/prebuilt/windows-x86_64/sysroot/usr/local/include -internal-isystem "C:\\Users\\Thanh\\AppData\\Local\\Android\\Sdk\\ndk\\21.4.7075529\\toolchains\\llvm\\prebuilt\\windows-x86_64\\lib64\\clang\\9.0.9\\include" -internal-externc-isystem C:/Users/Thanh/AppData/Local/Android/Sdk/ndk/21.4.7075529/toolchains/llvm/prebuilt/windows-x86_64/sysroot/usr/include/i686-linux-android -internal-externc-isystem C:/Users/Thanh/AppData/Local/Android/Sdk/ndk/21.4.7075529/toolchains/llvm/prebuilt/windows-x86_64/sysroot/include -internal-externc-isystem C:/Users/Thanh/AppData/Local/Android/Sdk/ndk/21.4.7075529/toolchains/llvm/prebuilt/windows-x86_64/sysroot/usr/include -Wformat -fdebug-compilation-dir "D:\\Github\\tet_count_down\\nativelib\\.cxx\\cmake\\release\\x86\\CMakeFiles\\CMakeTmp" -ferror-limit 19 -fmessage-length 0 -stack-protector 2 -mstackrealign -fobjc-runtime=gcc -fdiagnostics-show-option -o CMakeFiles/cmTC_14a8c.dir/CMakeCCompilerABI.c.o -x c C:/Users/Thanh/AppData/Local/Android/Sdk/cmake/3.18.1/share/cmake-3.18/Modules/CMakeCCompilerABI.c
clang -cc1 version 9.0.9 based upon LLVM 9.0.9svn default target x86_64-w64-windows-gnu
ignoring nonexistent directory "C:/Users/Thanh/AppData/Local/Android/Sdk/ndk/21.4.7075529/toolchains/llvm/prebuilt/windows-x86_64/sysroot/include"
#include "..." search starts here:
#include <...> search starts here:
 C:/Users/Thanh/AppData/Local/Android/Sdk/ndk/21.4.7075529/toolchains/llvm/prebuilt/windows-x86_64/sysroot/usr/local/include
 C:\Users\Thanh\AppData\Local\Android\Sdk\ndk\21.4.7075529\toolchains\llvm\prebuilt\windows-x86_64\lib64\clang\9.0.9\include
 C:/Users/Thanh/AppData/Local/Android/Sdk/ndk/21.4.7075529/toolchains/llvm/prebuilt/windows-x86_64/sysroot/usr/include/i686-linux-android
 C:/Users/Thanh/AppData/Local/Android/Sdk/ndk/21.4.7075529/toolchains/llvm/prebuilt/windows-x86_64/sysroot/usr/include
End of search list.
[2/2] Linking C executable cmTC_14a8c
Android (7019983 based on r365631c3) clang version 9.0.9 (https://android.googlesource.com/toolchain/llvm-project a2a1e703c0edb03ba29944e529ccbf457742737b) (based on LLVM 9.0.9svn)
Target: i686-none-linux-android23
Thread model: posix
InstalledDir: C:\Users\Thanh\AppData\Local\Android\Sdk\ndk\21.4.7075529\toolchains\llvm\prebuilt\windows-x86_64\bin
Found candidate GCC installation: C:/Users/Thanh/AppData/Local/Android/Sdk/ndk/21.4.7075529/toolchains/llvm/prebuilt/windows-x86_64/lib/gcc/i686-linux-android\4.9.x
Found candidate GCC installation: C:/Users/Thanh/AppData/Local/Android/Sdk/ndk/21.4.7075529/toolchains/llvm/prebuilt/windows-x86_64/lib/gcc/x86_64-linux-android\4.9.x
Selected GCC installation: C:/Users/Thanh/AppData/Local/Android/Sdk/ndk/21.4.7075529/toolchains/llvm/prebuilt/windows-x86_64/lib/gcc/i686-linux-android/4.9.x
Candidate multilib: .;@m32
Selected multilib: .;@m32
 "C:/Users/Thanh/AppData/Local/Android/Sdk/ndk/21.4.7075529/toolchains/llvm/prebuilt/windows-x86_64/lib/gcc/i686-linux-android/4.9.x/../../../../i686-linux-android/bin\\ld" --sysroot=C:/Users/Thanh/AppData/Local/Android/Sdk/ndk/21.4.7075529/toolchains/llvm/prebuilt/windows-x86_64/sysroot -pie -z noexecstack --warn-shared-textrel -z now -z relro --hash-style=gnu --enable-new-dtags --eh-frame-hdr -m elf_i386 -dynamic-linker /system/bin/linker -o cmTC_14a8c "C:/Users/Thanh/AppData/Local/Android/Sdk/ndk/21.4.7075529/toolchains/llvm/prebuilt/windows-x86_64/sysroot/usr/lib/i686-linux-android/23\\crtbegin_dynamic.o" "-LC:\\Users\\Thanh\\AppData\\Local\\Android\\Sdk\\ndk\\21.4.7075529\\toolchains\\llvm\\prebuilt\\windows-x86_64\\lib64\\clang\\9.0.9\\lib\\linux\\i386" -LC:/Users/Thanh/AppData/Local/Android/Sdk/ndk/21.4.7075529/toolchains/llvm/prebuilt/windows-x86_64/lib/gcc/i686-linux-android/4.9.x -LC:/Users/Thanh/AppData/Local/Android/Sdk/ndk/21.4.7075529/toolchains/llvm/prebuilt/windows-x86_64/sysroot/usr/lib/i686-linux-android/23 -LC:/Users/Thanh/AppData/Local/Android/Sdk/ndk/21.4.7075529/toolchains/llvm/prebuilt/windows-x86_64/sysroot/usr/lib/i686-linux-android -LC:/Users/Thanh/AppData/Local/Android/Sdk/ndk/21.4.7075529/toolchains/llvm/prebuilt/windows-x86_64/lib/gcc/i686-linux-android/4.9.x/../../../../i686-linux-android/lib -LC:/Users/Thanh/AppData/Local/Android/Sdk/ndk/21.4.7075529/toolchains/llvm/prebuilt/windows-x86_64/sysroot/usr/lib --exclude-libs libgcc.a --exclude-libs libgcc_real.a --exclude-libs libatomic.a --build-id --fatal-warnings --no-undefined --gc-sections CMakeFiles/cmTC_14a8c.dir/CMakeCCompilerABI.c.o -lgcc -ldl -lc -lgcc -ldl "C:/Users/Thanh/AppData/Local/Android/Sdk/ndk/21.4.7075529/toolchains/llvm/prebuilt/windows-x86_64/sysroot/usr/lib/i686-linux-android/23\\crtend_android.o"



Parsed C implicit include dir info from above output: rv=done
  found start of include info
  found start of implicit include info
    add: [C:/Users/Thanh/AppData/Local/Android/Sdk/ndk/21.4.7075529/toolchains/llvm/prebuilt/windows-x86_64/sysroot/usr/local/include]
    add: [C:/Users/Thanh/AppData/Local/Android/Sdk/ndk/21.4.7075529/toolchains/llvm/prebuilt/windows-x86_64/lib64/clang/9.0.9/include]
    add: [C:/Users/Thanh/AppData/Local/Android/Sdk/ndk/21.4.7075529/toolchains/llvm/prebuilt/windows-x86_64/sysroot/usr/include/i686-linux-android]
    add: [C:/Users/Thanh/AppData/Local/Android/Sdk/ndk/21.4.7075529/toolchains/llvm/prebuilt/windows-x86_64/sysroot/usr/include]
  end of search list found
  collapse include dir [C:/Users/Thanh/AppData/Local/Android/Sdk/ndk/21.4.7075529/toolchains/llvm/prebuilt/windows-x86_64/sysroot/usr/local/include] ==> [C:/Users/Thanh/AppData/Local/Android/Sdk/ndk/21.4.7075529/toolchains/llvm/prebuilt/windows-x86_64/sysroot/usr/local/include]
  collapse include dir [C:/Users/Thanh/AppData/Local/Android/Sdk/ndk/21.4.7075529/toolchains/llvm/prebuilt/windows-x86_64/lib64/clang/9.0.9/include] ==> [C:/Users/Thanh/AppData/Local/Android/Sdk/ndk/21.4.7075529/toolchains/llvm/prebuilt/windows-x86_64/lib64/clang/9.0.9/include]
  collapse include dir [C:/Users/Thanh/AppData/Local/Android/Sdk/ndk/21.4.7075529/toolchains/llvm/prebuilt/windows-x86_64/sysroot/usr/include/i686-linux-android] ==> [C:/Users/Thanh/AppData/Local/Android/Sdk/ndk/21.4.7075529/toolchains/llvm/prebuilt/windows-x86_64/sysroot/usr/include/i686-linux-android]
  collapse include dir [C:/Users/Thanh/AppData/Local/Android/Sdk/ndk/21.4.7075529/toolchains/llvm/prebuilt/windows-x86_64/sysroot/usr/include] ==> [C:/Users/Thanh/AppData/Local/Android/Sdk/ndk/21.4.7075529/toolchains/llvm/prebuilt/windows-x86_64/sysroot/usr/include]
  implicit include dirs: [C:/Users/Thanh/AppData/Local/Android/Sdk/ndk/21.4.7075529/toolchains/llvm/prebuilt/windows-x86_64/sysroot/usr/local/include;C:/Users/Thanh/AppData/Local/Android/Sdk/ndk/21.4.7075529/toolchains/llvm/prebuilt/windows-x86_64/lib64/clang/9.0.9/include;C:/Users/Thanh/AppData/Local/Android/Sdk/ndk/21.4.7075529/toolchains/llvm/prebuilt/windows-x86_64/sysroot/usr/include/i686-linux-android;C:/Users/Thanh/AppData/Local/Android/Sdk/ndk/21.4.7075529/toolchains/llvm/prebuilt/windows-x86_64/sysroot/usr/include]


Parsed C implicit link information from above output:
  link line regex: [^( *|.*[/\])(i686-linux-android-ld\.exe|CMAKE_LINK_STARTFILE-NOTFOUND|([^/\]+-)?ld|collect2)[^/\]*( |$)]
  ignore line: [Change Dir: D:/Github/tet_count_down/nativelib/.cxx/cmake/release/x86/CMakeFiles/CMakeTmp]
  ignore line: []
  ignore line: [Run Build Command(s):C:\Users\Thanh\AppData\Local\Android\Sdk\cmake\3.18.1\bin\ninja.exe cmTC_14a8c && [1/2] Building C object CMakeFiles/cmTC_14a8c.dir/CMakeCCompilerABI.c.o]
  ignore line: [Android (7019983 based on r365631c3) clang version 9.0.9 (https://android.googlesource.com/toolchain/llvm-project a2a1e703c0edb03ba29944e529ccbf457742737b) (based on LLVM 9.0.9svn)]
  ignore line: [Target: i686-none-linux-android23]
  ignore line: [Thread model: posix]
  ignore line: [InstalledDir: C:\Users\Thanh\AppData\Local\Android\Sdk\ndk\21.4.7075529\toolchains\llvm\prebuilt\windows-x86_64\bin]
  ignore line: [Found candidate GCC installation: C:/Users/Thanh/AppData/Local/Android/Sdk/ndk/21.4.7075529/toolchains/llvm/prebuilt/windows-x86_64/lib/gcc/i686-linux-android\4.9.x]
  ignore line: [Found candidate GCC installation: C:/Users/Thanh/AppData/Local/Android/Sdk/ndk/21.4.7075529/toolchains/llvm/prebuilt/windows-x86_64/lib/gcc/x86_64-linux-android\4.9.x]
  ignore line: [Selected GCC installation: C:/Users/Thanh/AppData/Local/Android/Sdk/ndk/21.4.7075529/toolchains/llvm/prebuilt/windows-x86_64/lib/gcc/i686-linux-android/4.9.x]
  ignore line: [Candidate multilib: .]
  ignore line: [@m32]
  ignore line: [Selected multilib: .]
  ignore line: [@m32]
  ignore line: [ "C:\\Users\\Thanh\\AppData\\Local\\Android\\Sdk\\ndk\\21.4.7075529\\toolchains\\llvm\\prebuilt\\windows-x86_64\\bin\\clang.exe" -cc1 -triple i686-none-linux-android23 -emit-obj -mrelax-all -mnoexecstack -disable-free -disable-llvm-verifier -discard-value-names -main-file-name CMakeCCompilerABI.c -mrelocation-model pic -pic-level 2 -pic-is-pie -mthread-model posix -mdisable-fp-elim -masm-verbose -mconstructor-aliases -munwind-tables -fuse-init-array -target-cpu i686 -target-feature +ssse3 -dwarf-column-info -debug-info-kind=limited -dwarf-version=4 -debugger-tuning=gdb -v -ffunction-sections -fdata-sections -coverage-notes-file "D:\\Github\\tet_count_down\\nativelib\\.cxx\\cmake\\release\\x86\\CMakeFiles\\CMakeTmp\\CMakeFiles/cmTC_14a8c.dir/CMakeCCompilerABI.c.gcno" -resource-dir "C:\\Users\\Thanh\\AppData\\Local\\Android\\Sdk\\ndk\\21.4.7075529\\toolchains\\llvm\\prebuilt\\windows-x86_64\\lib64\\clang\\9.0.9" -dependency-file "CMakeFiles\\cmTC_14a8c.dir\\CMakeCCompilerABI.c.o.d" -sys-header-deps -MT CMakeFiles/cmTC_14a8c.dir/CMakeCCompilerABI.c.o -D ANDROID -D _FORTIFY_SOURCE=2 -isysroot C:/Users/Thanh/AppData/Local/Android/Sdk/ndk/21.4.7075529/toolchains/llvm/prebuilt/windows-x86_64/sysroot -internal-isystem C:/Users/Thanh/AppData/Local/Android/Sdk/ndk/21.4.7075529/toolchains/llvm/prebuilt/windows-x86_64/sysroot/usr/local/include -internal-isystem "C:\\Users\\Thanh\\AppData\\Local\\Android\\Sdk\\ndk\\21.4.7075529\\toolchains\\llvm\\prebuilt\\windows-x86_64\\lib64\\clang\\9.0.9\\include" -internal-externc-isystem C:/Users/Thanh/AppData/Local/Android/Sdk/ndk/21.4.7075529/toolchains/llvm/prebuilt/windows-x86_64/sysroot/usr/include/i686-linux-android -internal-externc-isystem C:/Users/Thanh/AppData/Local/Android/Sdk/ndk/21.4.7075529/toolchains/llvm/prebuilt/windows-x86_64/sysroot/include -internal-externc-isystem C:/Users/Thanh/AppData/Local/Android/Sdk/ndk/21.4.7075529/toolchains/llvm/prebuilt/windows-x86_64/sysroot/usr/include -Wformat -fdebug-compilation-dir "D:\\Github\\tet_count_down\\nativelib\\.cxx\\cmake\\release\\x86\\CMakeFiles\\CMakeTmp" -ferror-limit 19 -fmessage-length 0 -stack-protector 2 -mstackrealign -fobjc-runtime=gcc -fdiagnostics-show-option -o CMakeFiles/cmTC_14a8c.dir/CMakeCCompilerABI.c.o -x c C:/Users/Thanh/AppData/Local/Android/Sdk/cmake/3.18.1/share/cmake-3.18/Modules/CMakeCCompilerABI.c]
  ignore line: [clang -cc1 version 9.0.9 based upon LLVM 9.0.9svn default target x86_64-w64-windows-gnu]
  ignore line: [ignoring nonexistent directory "C:/Users/Thanh/AppData/Local/Android/Sdk/ndk/21.4.7075529/toolchains/llvm/prebuilt/windows-x86_64/sysroot/include"]
  ignore line: [#include "..." search starts here:]
  ignore line: [#include <...> search starts here:]
  ignore line: [ C:/Users/Thanh/AppData/Local/Android/Sdk/ndk/21.4.7075529/toolchains/llvm/prebuilt/windows-x86_64/sysroot/usr/local/include]
  ignore line: [ C:\Users\Thanh\AppData\Local\Android\Sdk\ndk\21.4.7075529\toolchains\llvm\prebuilt\windows-x86_64\lib64\clang\9.0.9\include]
  ignore line: [ C:/Users/Thanh/AppData/Local/Android/Sdk/ndk/21.4.7075529/toolchains/llvm/prebuilt/windows-x86_64/sysroot/usr/include/i686-linux-android]
  ignore line: [ C:/Users/Thanh/AppData/Local/Android/Sdk/ndk/21.4.7075529/toolchains/llvm/prebuilt/windows-x86_64/sysroot/usr/include]
  ignore line: [End of search list.]
  ignore line: [[2/2] Linking C executable cmTC_14a8c]
  ignore line: [Android (7019983 based on r365631c3) clang version 9.0.9 (https://android.googlesource.com/toolchain/llvm-project a2a1e703c0edb03ba29944e529ccbf457742737b) (based on LLVM 9.0.9svn)]
  ignore line: [Target: i686-none-linux-android23]
  ignore line: [Thread model: posix]
  ignore line: [InstalledDir: C:\Users\Thanh\AppData\Local\Android\Sdk\ndk\21.4.7075529\toolchains\llvm\prebuilt\windows-x86_64\bin]
  ignore line: [Found candidate GCC installation: C:/Users/Thanh/AppData/Local/Android/Sdk/ndk/21.4.7075529/toolchains/llvm/prebuilt/windows-x86_64/lib/gcc/i686-linux-android\4.9.x]
  ignore line: [Found candidate GCC installation: C:/Users/Thanh/AppData/Local/Android/Sdk/ndk/21.4.7075529/toolchains/llvm/prebuilt/windows-x86_64/lib/gcc/x86_64-linux-android\4.9.x]
  ignore line: [Selected GCC installation: C:/Users/Thanh/AppData/Local/Android/Sdk/ndk/21.4.7075529/toolchains/llvm/prebuilt/windows-x86_64/lib/gcc/i686-linux-android/4.9.x]
  ignore line: [Candidate multilib: .]
  ignore line: [@m32]
  ignore line: [Selected multilib: .]
  ignore line: [@m32]
  link line: [ "C:/Users/Thanh/AppData/Local/Android/Sdk/ndk/21.4.7075529/toolchains/llvm/prebuilt/windows-x86_64/lib/gcc/i686-linux-android/4.9.x/../../../../i686-linux-android/bin\\ld" --sysroot=C:/Users/Thanh/AppData/Local/Android/Sdk/ndk/21.4.7075529/toolchains/llvm/prebuilt/windows-x86_64/sysroot -pie -z noexecstack --warn-shared-textrel -z now -z relro --hash-style=gnu --enable-new-dtags --eh-frame-hdr -m elf_i386 -dynamic-linker /system/bin/linker -o cmTC_14a8c "C:/Users/Thanh/AppData/Local/Android/Sdk/ndk/21.4.7075529/toolchains/llvm/prebuilt/windows-x86_64/sysroot/usr/lib/i686-linux-android/23\\crtbegin_dynamic.o" "-LC:\\Users\\Thanh\\AppData\\Local\\Android\\Sdk\\ndk\\21.4.7075529\\toolchains\\llvm\\prebuilt\\windows-x86_64\\lib64\\clang\\9.0.9\\lib\\linux\\i386" -LC:/Users/Thanh/AppData/Local/Android/Sdk/ndk/21.4.7075529/toolchains/llvm/prebuilt/windows-x86_64/lib/gcc/i686-linux-android/4.9.x -LC:/Users/Thanh/AppData/Local/Android/Sdk/ndk/21.4.7075529/toolchains/llvm/prebuilt/windows-x86_64/sysroot/usr/lib/i686-linux-android/23 -LC:/Users/Thanh/AppData/Local/Android/Sdk/ndk/21.4.7075529/toolchains/llvm/prebuilt/windows-x86_64/sysroot/usr/lib/i686-linux-android -LC:/Users/Thanh/AppData/Local/Android/Sdk/ndk/21.4.7075529/toolchains/llvm/prebuilt/windows-x86_64/lib/gcc/i686-linux-android/4.9.x/../../../../i686-linux-android/lib -LC:/Users/Thanh/AppData/Local/Android/Sdk/ndk/21.4.7075529/toolchains/llvm/prebuilt/windows-x86_64/sysroot/usr/lib --exclude-libs libgcc.a --exclude-libs libgcc_real.a --exclude-libs libatomic.a --build-id --fatal-warnings --no-undefined --gc-sections CMakeFiles/cmTC_14a8c.dir/CMakeCCompilerABI.c.o -lgcc -ldl -lc -lgcc -ldl "C:/Users/Thanh/AppData/Local/Android/Sdk/ndk/21.4.7075529/toolchains/llvm/prebuilt/windows-x86_64/sysroot/usr/lib/i686-linux-android/23\\crtend_android.o"]
    arg [C:/Users/Thanh/AppData/Local/Android/Sdk/ndk/21.4.7075529/toolchains/llvm/prebuilt/windows-x86_64/lib/gcc/i686-linux-android/4.9.x/../../../../i686-linux-android/bin\\ld] ==> ignore
    arg [--sysroot=C:/Users/Thanh/AppData/Local/Android/Sdk/ndk/21.4.7075529/toolchains/llvm/prebuilt/windows-x86_64/sysroot] ==> ignore
    arg [-pie] ==> ignore
    arg [-znoexecstack] ==> ignore
    arg [--warn-shared-textrel] ==> ignore
    arg [-znow] ==> ignore
    arg [-zrelro] ==> ignore
    arg [--hash-style=gnu] ==> ignore
    arg [--enable-new-dtags] ==> ignore
    arg [--eh-frame-hdr] ==> ignore
    arg [-m] ==> ignore
    arg [elf_i386] ==> ignore
    arg [-dynamic-linker] ==> ignore
    arg [/system/bin/linker] ==> ignore
    arg [-o] ==> ignore
    arg [cmTC_14a8c] ==> ignore
    arg [C:/Users/Thanh/AppData/Local/Android/Sdk/ndk/21.4.7075529/toolchains/llvm/prebuilt/windows-x86_64/sysroot/usr/lib/i686-linux-android/23\\crtbegin_dynamic.o] ==> ignore
    arg [-LC:\\Users\\Thanh\\AppData\\Local\\Android\\Sdk\\ndk\\21.4.7075529\\toolchains\\llvm\\prebuilt\\windows-x86_64\\lib64\\clang\\9.0.9\\lib\\linux\\i386] ==> dir [C:\\Users\\Thanh\\AppData\\Local\\Android\\Sdk\\ndk\\21.4.7075529\\toolchains\\llvm\\prebuilt\\windows-x86_64\\lib64\\clang\\9.0.9\\lib\\linux\\i386]
    arg [-LC:/Users/Thanh/AppData/Local/Android/Sdk/ndk/21.4.7075529/toolchains/llvm/prebuilt/windows-x86_64/lib/gcc/i686-linux-android/4.9.x] ==> dir [C:/Users/Thanh/AppData/Local/Android/Sdk/ndk/21.4.7075529/toolchains/llvm/prebuilt/windows-x86_64/lib/gcc/i686-linux-android/4.9.x]
    arg [-LC:/Users/Thanh/AppData/Local/Android/Sdk/ndk/21.4.7075529/toolchains/llvm/prebuilt/windows-x86_64/sysroot/usr/lib/i686-linux-android/23] ==> dir [C:/Users/Thanh/AppData/Local/Android/Sdk/ndk/21.4.7075529/toolchains/llvm/prebuilt/windows-x86_64/sysroot/usr/lib/i686-linux-android/23]
    arg [-LC:/Users/Thanh/AppData/Local/Android/Sdk/ndk/21.4.7075529/toolchains/llvm/prebuilt/windows-x86_64/sysroot/usr/lib/i686-linux-android] ==> dir [C:/Users/Thanh/AppData/Local/Android/Sdk/ndk/21.4.7075529/toolchains/llvm/prebuilt/windows-x86_64/sysroot/usr/lib/i686-linux-android]
    arg [-LC:/Users/Thanh/AppData/Local/Android/Sdk/ndk/21.4.7075529/toolchains/llvm/prebuilt/windows-x86_64/lib/gcc/i686-linux-android/4.9.x/../../../../i686-linux-android/lib] ==> dir [C:/Users/Thanh/AppData/Local/Android/Sdk/ndk/21.4.7075529/toolchains/llvm/prebuilt/windows-x86_64/lib/gcc/i686-linux-android/4.9.x/../../../../i686-linux-android/lib]
    arg [-LC:/Users/Thanh/AppData/Local/Android/Sdk/ndk/21.4.7075529/toolchains/llvm/prebuilt/windows-x86_64/sysroot/usr/lib] ==> dir [C:/Users/Thanh/AppData/Local/Android/Sdk/ndk/21.4.7075529/toolchains/llvm/prebuilt/windows-x86_64/sysroot/usr/lib]
    arg [--exclude-libs] ==> ignore
    arg [libgcc.a] ==> ignore
    arg [--exclude-libs] ==> ignore
    arg [libgcc_real.a] ==> ignore
    arg [--exclude-libs] ==> ignore
    arg [libatomic.a] ==> ignore
    arg [--build-id] ==> ignore
    arg [--fatal-warnings] ==> ignore
    arg [--no-undefined] ==> ignore
    arg [--gc-sections] ==> ignore
    arg [CMakeFiles/cmTC_14a8c.dir/CMakeCCompilerABI.c.o] ==> ignore
    arg [-lgcc] ==> lib [gcc]
    arg [-ldl] ==> lib [dl]
    arg [-lc] ==> lib [c]
    arg [-lgcc] ==> lib [gcc]
    arg [-ldl] ==> lib [dl]
    arg [C:/Users/Thanh/AppData/Local/Android/Sdk/ndk/21.4.7075529/toolchains/llvm/prebuilt/windows-x86_64/sysroot/usr/lib/i686-linux-android/23\\crtend_android.o] ==> ignore
  collapse library dir [C:\\Users\\Thanh\\AppData\\Local\\Android\\Sdk\\ndk\\21.4.7075529\\toolchains\\llvm\\prebuilt\\windows-x86_64\\lib64\\clang\\9.0.9\\lib\\linux\\i386] ==> [C:/Users/Thanh/AppData/Local/Android/Sdk/ndk/21.4.7075529/toolchains/llvm/prebuilt/windows-x86_64/lib64/clang/9.0.9/lib/linux/i386]
  collapse library dir [C:/Users/Thanh/AppData/Local/Android/Sdk/ndk/21.4.7075529/toolchains/llvm/prebuilt/windows-x86_64/lib/gcc/i686-linux-android/4.9.x] ==> [C:/Users/Thanh/AppData/Local/Android/Sdk/ndk/21.4.7075529/toolchains/llvm/prebuilt/windows-x86_64/lib/gcc/i686-linux-android/4.9.x]
  collapse library dir [C:/Users/Thanh/AppData/Local/Android/Sdk/ndk/21.4.7075529/toolchains/llvm/prebuilt/windows-x86_64/sysroot/usr/lib/i686-linux-android/23] ==> [C:/Users/Thanh/AppData/Local/Android/Sdk/ndk/21.4.7075529/toolchains/llvm/prebuilt/windows-x86_64/sysroot/usr/lib/i686-linux-android/23]
  collapse library dir [C:/Users/Thanh/AppData/Local/Android/Sdk/ndk/21.4.7075529/toolchains/llvm/prebuilt/windows-x86_64/sysroot/usr/lib/i686-linux-android] ==> [C:/Users/Thanh/AppData/Local/Android/Sdk/ndk/21.4.7075529/toolchains/llvm/prebuilt/windows-x86_64/sysroot/usr/lib/i686-linux-android]
  collapse library dir [C:/Users/Thanh/AppData/Local/Android/Sdk/ndk/21.4.7075529/toolchains/llvm/prebuilt/windows-x86_64/lib/gcc/i686-linux-android/4.9.x/../../../../i686-linux-android/lib] ==> [C:/Users/Thanh/AppData/Local/Android/Sdk/ndk/21.4.7075529/toolchains/llvm/prebuilt/windows-x86_64/i686-linux-android/lib]
  collapse library dir [C:/Users/Thanh/AppData/Local/Android/Sdk/ndk/21.4.7075529/toolchains/llvm/prebuilt/windows-x86_64/sysroot/usr/lib] ==> [C:/Users/Thanh/AppData/Local/Android/Sdk/ndk/21.4.7075529/toolchains/llvm/prebuilt/windows-x86_64/sysroot/usr/lib]
  implicit libs: [gcc;dl;c;gcc;dl]
  implicit dirs: [C:/Users/Thanh/AppData/Local/Android/Sdk/ndk/21.4.7075529/toolchains/llvm/prebuilt/windows-x86_64/lib64/clang/9.0.9/lib/linux/i386;C:/Users/Thanh/AppData/Local/Android/Sdk/ndk/21.4.7075529/toolchains/llvm/prebuilt/windows-x86_64/lib/gcc/i686-linux-android/4.9.x;C:/Users/Thanh/AppData/Local/Android/Sdk/ndk/21.4.7075529/toolchains/llvm/prebuilt/windows-x86_64/sysroot/usr/lib/i686-linux-android/23;C:/Users/Thanh/AppData/Local/Android/Sdk/ndk/21.4.7075529/toolchains/llvm/prebuilt/windows-x86_64/sysroot/usr/lib/i686-linux-android;C:/Users/Thanh/AppData/Local/Android/Sdk/ndk/21.4.7075529/toolchains/llvm/prebuilt/windows-x86_64/i686-linux-android/lib;C:/Users/Thanh/AppData/Local/Android/Sdk/ndk/21.4.7075529/toolchains/llvm/prebuilt/windows-x86_64/sysroot/usr/lib]
  implicit fwks: []


Detecting CXX compiler ABI info compiled with the following output:
Change Dir: D:/Github/tet_count_down/nativelib/.cxx/cmake/release/x86/CMakeFiles/CMakeTmp

Run Build Command(s):C:\Users\Thanh\AppData\Local\Android\Sdk\cmake\3.18.1\bin\ninja.exe cmTC_fc83e && [1/2] Building CXX object CMakeFiles/cmTC_fc83e.dir/CMakeCXXCompilerABI.cpp.o
Android (7019983 based on r365631c3) clang version 9.0.9 (https://android.googlesource.com/toolchain/llvm-project a2a1e703c0edb03ba29944e529ccbf457742737b) (based on LLVM 9.0.9svn)
Target: i686-none-linux-android23
Thread model: posix
InstalledDir: C:\Users\Thanh\AppData\Local\Android\Sdk\ndk\21.4.7075529\toolchains\llvm\prebuilt\windows-x86_64\bin
Found candidate GCC installation: C:/Users/Thanh/AppData/Local/Android/Sdk/ndk/21.4.7075529/toolchains/llvm/prebuilt/windows-x86_64/lib/gcc/i686-linux-android\4.9.x
Found candidate GCC installation: C:/Users/Thanh/AppData/Local/Android/Sdk/ndk/21.4.7075529/toolchains/llvm/prebuilt/windows-x86_64/lib/gcc/x86_64-linux-android\4.9.x
Selected GCC installation: C:/Users/Thanh/AppData/Local/Android/Sdk/ndk/21.4.7075529/toolchains/llvm/prebuilt/windows-x86_64/lib/gcc/i686-linux-android/4.9.x
Candidate multilib: .;@m32
Selected multilib: .;@m32
 "C:\\Users\\Thanh\\AppData\\Local\\Android\\Sdk\\ndk\\21.4.7075529\\toolchains\\llvm\\prebuilt\\windows-x86_64\\bin\\clang++.exe" -cc1 -triple i686-none-linux-android23 -emit-obj -mrelax-all -mnoexecstack -disable-free -disable-llvm-verifier -discard-value-names -main-file-name CMakeCXXCompilerABI.cpp -mrelocation-model pic -pic-level 2 -pic-is-pie -mthread-model posix -mdisable-fp-elim -masm-verbose -mconstructor-aliases -munwind-tables -fuse-init-array -target-cpu i686 -target-feature +ssse3 -dwarf-column-info -debug-info-kind=limited -dwarf-version=4 -debugger-tuning=gdb -v -ffunction-sections -fdata-sections -coverage-notes-file "D:\\Github\\tet_count_down\\nativelib\\.cxx\\cmake\\release\\x86\\CMakeFiles\\CMakeTmp\\CMakeFiles/cmTC_fc83e.dir/CMakeCXXCompilerABI.cpp.gcno" -resource-dir "C:\\Users\\Thanh\\AppData\\Local\\Android\\Sdk\\ndk\\21.4.7075529\\toolchains\\llvm\\prebuilt\\windows-x86_64\\lib64\\clang\\9.0.9" -dependency-file "CMakeFiles\\cmTC_fc83e.dir\\CMakeCXXCompilerABI.cpp.o.d" -sys-header-deps -MT CMakeFiles/cmTC_fc83e.dir/CMakeCXXCompilerABI.cpp.o -D ANDROID -D _FORTIFY_SOURCE=2 -isysroot C:/Users/Thanh/AppData/Local/Android/Sdk/ndk/21.4.7075529/toolchains/llvm/prebuilt/windows-x86_64/sysroot -internal-isystem C:/Users/Thanh/AppData/Local/Android/Sdk/ndk/21.4.7075529/toolchains/llvm/prebuilt/windows-x86_64/sysroot/usr/include/c++/v1 -internal-isystem C:/Users/Thanh/AppData/Local/Android/Sdk/ndk/21.4.7075529/toolchains/llvm/prebuilt/windows-x86_64/sysroot/usr/local/include -internal-isystem "C:\\Users\\Thanh\\AppData\\Local\\Android\\Sdk\\ndk\\21.4.7075529\\toolchains\\llvm\\prebuilt\\windows-x86_64\\lib64\\clang\\9.0.9\\include" -internal-externc-isystem C:/Users/Thanh/AppData/Local/Android/Sdk/ndk/21.4.7075529/toolchains/llvm/prebuilt/windows-x86_64/sysroot/usr/include/i686-linux-android -internal-externc-isystem C:/Users/Thanh/AppData/Local/Android/Sdk/ndk/21.4.7075529/toolchains/llvm/prebuilt/windows-x86_64/sysroot/include -internal-externc-isystem C:/Users/Thanh/AppData/Local/Android/Sdk/ndk/21.4.7075529/toolchains/llvm/prebuilt/windows-x86_64/sysroot/usr/include -Wformat -fdeprecated-macro -fdebug-compilation-dir "D:\\Github\\tet_count_down\\nativelib\\.cxx\\cmake\\release\\x86\\CMakeFiles\\CMakeTmp" -ferror-limit 19 -fmessage-length 0 -stack-protector 2 -mstackrealign -fobjc-runtime=gcc -fcxx-exceptions -fexceptions -fdiagnostics-show-option -o CMakeFiles/cmTC_fc83e.dir/CMakeCXXCompilerABI.cpp.o -x c++ C:/Users/Thanh/AppData/Local/Android/Sdk/cmake/3.18.1/share/cmake-3.18/Modules/CMakeCXXCompilerABI.cpp
clang -cc1 version 9.0.9 based upon LLVM 9.0.9svn default target x86_64-w64-windows-gnu
ignoring nonexistent directory "C:/Users/Thanh/AppData/Local/Android/Sdk/ndk/21.4.7075529/toolchains/llvm/prebuilt/windows-x86_64/sysroot/include"
#include "..." search starts here:
#include <...> search starts here:
 C:/Users/Thanh/AppData/Local/Android/Sdk/ndk/21.4.7075529/toolchains/llvm/prebuilt/windows-x86_64/sysroot/usr/include/c++/v1
 C:/Users/Thanh/AppData/Local/Android/Sdk/ndk/21.4.7075529/toolchains/llvm/prebuilt/windows-x86_64/sysroot/usr/local/include
 C:\Users\Thanh\AppData\Local\Android\Sdk\ndk\21.4.7075529\toolchains\llvm\prebuilt\windows-x86_64\lib64\clang\9.0.9\include
 C:/Users/Thanh/AppData/Local/Android/Sdk/ndk/21.4.7075529/toolchains/llvm/prebuilt/windows-x86_64/sysroot/usr/include/i686-linux-android
 C:/Users/Thanh/AppData/Local/Android/Sdk/ndk/21.4.7075529/toolchains/llvm/prebuilt/windows-x86_64/sysroot/usr/include
End of search list.
[2/2] Linking CXX executable cmTC_fc83e
Android (7019983 based on r365631c3) clang version 9.0.9 (https://android.googlesource.com/toolchain/llvm-project a2a1e703c0edb03ba29944e529ccbf457742737b) (based on LLVM 9.0.9svn)
Target: i686-none-linux-android23
Thread model: posix
InstalledDir: C:\Users\Thanh\AppData\Local\Android\Sdk\ndk\21.4.7075529\toolchains\llvm\prebuilt\windows-x86_64\bin
Found candidate GCC installation: C:/Users/Thanh/AppData/Local/Android/Sdk/ndk/21.4.7075529/toolchains/llvm/prebuilt/windows-x86_64/lib/gcc/i686-linux-android\4.9.x
Found candidate GCC installation: C:/Users/Thanh/AppData/Local/Android/Sdk/ndk/21.4.7075529/toolchains/llvm/prebuilt/windows-x86_64/lib/gcc/x86_64-linux-android\4.9.x
Selected GCC installation: C:/Users/Thanh/AppData/Local/Android/Sdk/ndk/21.4.7075529/toolchains/llvm/prebuilt/windows-x86_64/lib/gcc/i686-linux-android/4.9.x
Candidate multilib: .;@m32
Selected multilib: .;@m32
 "C:/Users/Thanh/AppData/Local/Android/Sdk/ndk/21.4.7075529/toolchains/llvm/prebuilt/windows-x86_64/lib/gcc/i686-linux-android/4.9.x/../../../../i686-linux-android/bin\\ld" --sysroot=C:/Users/Thanh/AppData/Local/Android/Sdk/ndk/21.4.7075529/toolchains/llvm/prebuilt/windows-x86_64/sysroot -pie -z noexecstack --warn-shared-textrel -z now -z relro --hash-style=gnu --enable-new-dtags --eh-frame-hdr -m elf_i386 -dynamic-linker /system/bin/linker -o cmTC_fc83e "C:/Users/Thanh/AppData/Local/Android/Sdk/ndk/21.4.7075529/toolchains/llvm/prebuilt/windows-x86_64/sysroot/usr/lib/i686-linux-android/23\\crtbegin_dynamic.o" "-LC:\\Users\\Thanh\\AppData\\Local\\Android\\Sdk\\ndk\\21.4.7075529\\toolchains\\llvm\\prebuilt\\windows-x86_64\\lib64\\clang\\9.0.9\\lib\\linux\\i386" -LC:/Users/Thanh/AppData/Local/Android/Sdk/ndk/21.4.7075529/toolchains/llvm/prebuilt/windows-x86_64/lib/gcc/i686-linux-android/4.9.x -LC:/Users/Thanh/AppData/Local/Android/Sdk/ndk/21.4.7075529/toolchains/llvm/prebuilt/windows-x86_64/sysroot/usr/lib/i686-linux-android/23 -LC:/Users/Thanh/AppData/Local/Android/Sdk/ndk/21.4.7075529/toolchains/llvm/prebuilt/windows-x86_64/sysroot/usr/lib/i686-linux-android -LC:/Users/Thanh/AppData/Local/Android/Sdk/ndk/21.4.7075529/toolchains/llvm/prebuilt/windows-x86_64/lib/gcc/i686-linux-android/4.9.x/../../../../i686-linux-android/lib -LC:/Users/Thanh/AppData/Local/Android/Sdk/ndk/21.4.7075529/toolchains/llvm/prebuilt/windows-x86_64/sysroot/usr/lib --exclude-libs libgcc.a --exclude-libs libgcc_real.a --exclude-libs libatomic.a --build-id --fatal-warnings --no-undefined --gc-sections CMakeFiles/cmTC_fc83e.dir/CMakeCXXCompilerABI.cpp.o -Bstatic -lc++ -Bdynamic -lm -lgcc -ldl -lc -lgcc -ldl "C:/Users/Thanh/AppData/Local/Android/Sdk/ndk/21.4.7075529/toolchains/llvm/prebuilt/windows-x86_64/sysroot/usr/lib/i686-linux-android/23\\crtend_android.o"



Parsed CXX implicit include dir info from above output: rv=done
  found start of include info
  found start of implicit include info
    add: [C:/Users/Thanh/AppData/Local/Android/Sdk/ndk/21.4.7075529/toolchains/llvm/prebuilt/windows-x86_64/sysroot/usr/include/c++/v1]
    add: [C:/Users/Thanh/AppData/Local/Android/Sdk/ndk/21.4.7075529/toolchains/llvm/prebuilt/windows-x86_64/sysroot/usr/local/include]
    add: [C:/Users/Thanh/AppData/Local/Android/Sdk/ndk/21.4.7075529/toolchains/llvm/prebuilt/windows-x86_64/lib64/clang/9.0.9/include]
    add: [C:/Users/Thanh/AppData/Local/Android/Sdk/ndk/21.4.7075529/toolchains/llvm/prebuilt/windows-x86_64/sysroot/usr/include/i686-linux-android]
    add: [C:/Users/Thanh/AppData/Local/Android/Sdk/ndk/21.4.7075529/toolchains/llvm/prebuilt/windows-x86_64/sysroot/usr/include]
  end of search list found
  collapse include dir [C:/Users/Thanh/AppData/Local/Android/Sdk/ndk/21.4.7075529/toolchains/llvm/prebuilt/windows-x86_64/sysroot/usr/include/c++/v1] ==> [C:/Users/Thanh/AppData/Local/Android/Sdk/ndk/21.4.7075529/toolchains/llvm/prebuilt/windows-x86_64/sysroot/usr/include/c++/v1]
  collapse include dir [C:/Users/Thanh/AppData/Local/Android/Sdk/ndk/21.4.7075529/toolchains/llvm/prebuilt/windows-x86_64/sysroot/usr/local/include] ==> [C:/Users/Thanh/AppData/Local/Android/Sdk/ndk/21.4.7075529/toolchains/llvm/prebuilt/windows-x86_64/sysroot/usr/local/include]
  collapse include dir [C:/Users/Thanh/AppData/Local/Android/Sdk/ndk/21.4.7075529/toolchains/llvm/prebuilt/windows-x86_64/lib64/clang/9.0.9/include] ==> [C:/Users/Thanh/AppData/Local/Android/Sdk/ndk/21.4.7075529/toolchains/llvm/prebuilt/windows-x86_64/lib64/clang/9.0.9/include]
  collapse include dir [C:/Users/Thanh/AppData/Local/Android/Sdk/ndk/21.4.7075529/toolchains/llvm/prebuilt/windows-x86_64/sysroot/usr/include/i686-linux-android] ==> [C:/Users/Thanh/AppData/Local/Android/Sdk/ndk/21.4.7075529/toolchains/llvm/prebuilt/windows-x86_64/sysroot/usr/include/i686-linux-android]
  collapse include dir [C:/Users/Thanh/AppData/Local/Android/Sdk/ndk/21.4.7075529/toolchains/llvm/prebuilt/windows-x86_64/sysroot/usr/include] ==> [C:/Users/Thanh/AppData/Local/Android/Sdk/ndk/21.4.7075529/toolchains/llvm/prebuilt/windows-x86_64/sysroot/usr/include]
  implicit include dirs: [C:/Users/Thanh/AppData/Local/Android/Sdk/ndk/21.4.7075529/toolchains/llvm/prebuilt/windows-x86_64/sysroot/usr/include/c++/v1;C:/Users/Thanh/AppData/Local/Android/Sdk/ndk/21.4.7075529/toolchains/llvm/prebuilt/windows-x86_64/sysroot/usr/local/include;C:/Users/Thanh/AppData/Local/Android/Sdk/ndk/21.4.7075529/toolchains/llvm/prebuilt/windows-x86_64/lib64/clang/9.0.9/include;C:/Users/Thanh/AppData/Local/Android/Sdk/ndk/21.4.7075529/toolchains/llvm/prebuilt/windows-x86_64/sysroot/usr/include/i686-linux-android;C:/Users/Thanh/AppData/Local/Android/Sdk/ndk/21.4.7075529/toolchains/llvm/prebuilt/windows-x86_64/sysroot/usr/include]


Parsed CXX implicit link information from above output:
  link line regex: [^( *|.*[/\])(i686-linux-android-ld\.exe|CMAKE_LINK_STARTFILE-NOTFOUND|([^/\]+-)?ld|collect2)[^/\]*( |$)]
  ignore line: [Change Dir: D:/Github/tet_count_down/nativelib/.cxx/cmake/release/x86/CMakeFiles/CMakeTmp]
  ignore line: []
  ignore line: [Run Build Command(s):C:\Users\Thanh\AppData\Local\Android\Sdk\cmake\3.18.1\bin\ninja.exe cmTC_fc83e && [1/2] Building CXX object CMakeFiles/cmTC_fc83e.dir/CMakeCXXCompilerABI.cpp.o]
  ignore line: [Android (7019983 based on r365631c3) clang version 9.0.9 (https://android.googlesource.com/toolchain/llvm-project a2a1e703c0edb03ba29944e529ccbf457742737b) (based on LLVM 9.0.9svn)]
  ignore line: [Target: i686-none-linux-android23]
  ignore line: [Thread model: posix]
  ignore line: [InstalledDir: C:\Users\Thanh\AppData\Local\Android\Sdk\ndk\21.4.7075529\toolchains\llvm\prebuilt\windows-x86_64\bin]
  ignore line: [Found candidate GCC installation: C:/Users/Thanh/AppData/Local/Android/Sdk/ndk/21.4.7075529/toolchains/llvm/prebuilt/windows-x86_64/lib/gcc/i686-linux-android\4.9.x]
  ignore line: [Found candidate GCC installation: C:/Users/Thanh/AppData/Local/Android/Sdk/ndk/21.4.7075529/toolchains/llvm/prebuilt/windows-x86_64/lib/gcc/x86_64-linux-android\4.9.x]
  ignore line: [Selected GCC installation: C:/Users/Thanh/AppData/Local/Android/Sdk/ndk/21.4.7075529/toolchains/llvm/prebuilt/windows-x86_64/lib/gcc/i686-linux-android/4.9.x]
  ignore line: [Candidate multilib: .]
  ignore line: [@m32]
  ignore line: [Selected multilib: .]
  ignore line: [@m32]
  ignore line: [ "C:\\Users\\Thanh\\AppData\\Local\\Android\\Sdk\\ndk\\21.4.7075529\\toolchains\\llvm\\prebuilt\\windows-x86_64\\bin\\clang++.exe" -cc1 -triple i686-none-linux-android23 -emit-obj -mrelax-all -mnoexecstack -disable-free -disable-llvm-verifier -discard-value-names -main-file-name CMakeCXXCompilerABI.cpp -mrelocation-model pic -pic-level 2 -pic-is-pie -mthread-model posix -mdisable-fp-elim -masm-verbose -mconstructor-aliases -munwind-tables -fuse-init-array -target-cpu i686 -target-feature +ssse3 -dwarf-column-info -debug-info-kind=limited -dwarf-version=4 -debugger-tuning=gdb -v -ffunction-sections -fdata-sections -coverage-notes-file "D:\\Github\\tet_count_down\\nativelib\\.cxx\\cmake\\release\\x86\\CMakeFiles\\CMakeTmp\\CMakeFiles/cmTC_fc83e.dir/CMakeCXXCompilerABI.cpp.gcno" -resource-dir "C:\\Users\\Thanh\\AppData\\Local\\Android\\Sdk\\ndk\\21.4.7075529\\toolchains\\llvm\\prebuilt\\windows-x86_64\\lib64\\clang\\9.0.9" -dependency-file "CMakeFiles\\cmTC_fc83e.dir\\CMakeCXXCompilerABI.cpp.o.d" -sys-header-deps -MT CMakeFiles/cmTC_fc83e.dir/CMakeCXXCompilerABI.cpp.o -D ANDROID -D _FORTIFY_SOURCE=2 -isysroot C:/Users/Thanh/AppData/Local/Android/Sdk/ndk/21.4.7075529/toolchains/llvm/prebuilt/windows-x86_64/sysroot -internal-isystem C:/Users/Thanh/AppData/Local/Android/Sdk/ndk/21.4.7075529/toolchains/llvm/prebuilt/windows-x86_64/sysroot/usr/include/c++/v1 -internal-isystem C:/Users/Thanh/AppData/Local/Android/Sdk/ndk/21.4.7075529/toolchains/llvm/prebuilt/windows-x86_64/sysroot/usr/local/include -internal-isystem "C:\\Users\\Thanh\\AppData\\Local\\Android\\Sdk\\ndk\\21.4.7075529\\toolchains\\llvm\\prebuilt\\windows-x86_64\\lib64\\clang\\9.0.9\\include" -internal-externc-isystem C:/Users/Thanh/AppData/Local/Android/Sdk/ndk/21.4.7075529/toolchains/llvm/prebuilt/windows-x86_64/sysroot/usr/include/i686-linux-android -internal-externc-isystem C:/Users/Thanh/AppData/Local/Android/Sdk/ndk/21.4.7075529/toolchains/llvm/prebuilt/windows-x86_64/sysroot/include -internal-externc-isystem C:/Users/Thanh/AppData/Local/Android/Sdk/ndk/21.4.7075529/toolchains/llvm/prebuilt/windows-x86_64/sysroot/usr/include -Wformat -fdeprecated-macro -fdebug-compilation-dir "D:\\Github\\tet_count_down\\nativelib\\.cxx\\cmake\\release\\x86\\CMakeFiles\\CMakeTmp" -ferror-limit 19 -fmessage-length 0 -stack-protector 2 -mstackrealign -fobjc-runtime=gcc -fcxx-exceptions -fexceptions -fdiagnostics-show-option -o CMakeFiles/cmTC_fc83e.dir/CMakeCXXCompilerABI.cpp.o -x c++ C:/Users/Thanh/AppData/Local/Android/Sdk/cmake/3.18.1/share/cmake-3.18/Modules/CMakeCXXCompilerABI.cpp]
  ignore line: [clang -cc1 version 9.0.9 based upon LLVM 9.0.9svn default target x86_64-w64-windows-gnu]
  ignore line: [ignoring nonexistent directory "C:/Users/Thanh/AppData/Local/Android/Sdk/ndk/21.4.7075529/toolchains/llvm/prebuilt/windows-x86_64/sysroot/include"]
  ignore line: [#include "..." search starts here:]
  ignore line: [#include <...> search starts here:]
  ignore line: [ C:/Users/Thanh/AppData/Local/Android/Sdk/ndk/21.4.7075529/toolchains/llvm/prebuilt/windows-x86_64/sysroot/usr/include/c++/v1]
  ignore line: [ C:/Users/Thanh/AppData/Local/Android/Sdk/ndk/21.4.7075529/toolchains/llvm/prebuilt/windows-x86_64/sysroot/usr/local/include]
  ignore line: [ C:\Users\Thanh\AppData\Local\Android\Sdk\ndk\21.4.7075529\toolchains\llvm\prebuilt\windows-x86_64\lib64\clang\9.0.9\include]
  ignore line: [ C:/Users/Thanh/AppData/Local/Android/Sdk/ndk/21.4.7075529/toolchains/llvm/prebuilt/windows-x86_64/sysroot/usr/include/i686-linux-android]
  ignore line: [ C:/Users/Thanh/AppData/Local/Android/Sdk/ndk/21.4.7075529/toolchains/llvm/prebuilt/windows-x86_64/sysroot/usr/include]
  ignore line: [End of search list.]
  ignore line: [[2/2] Linking CXX executable cmTC_fc83e]
  ignore line: [Android (7019983 based on r365631c3) clang version 9.0.9 (https://android.googlesource.com/toolchain/llvm-project a2a1e703c0edb03ba29944e529ccbf457742737b) (based on LLVM 9.0.9svn)]
  ignore line: [Target: i686-none-linux-android23]
  ignore line: [Thread model: posix]
  ignore line: [InstalledDir: C:\Users\Thanh\AppData\Local\Android\Sdk\ndk\21.4.7075529\toolchains\llvm\prebuilt\windows-x86_64\bin]
  ignore line: [Found candidate GCC installation: C:/Users/Thanh/AppData/Local/Android/Sdk/ndk/21.4.7075529/toolchains/llvm/prebuilt/windows-x86_64/lib/gcc/i686-linux-android\4.9.x]
  ignore line: [Found candidate GCC installation: C:/Users/Thanh/AppData/Local/Android/Sdk/ndk/21.4.7075529/toolchains/llvm/prebuilt/windows-x86_64/lib/gcc/x86_64-linux-android\4.9.x]
  ignore line: [Selected GCC installation: C:/Users/Thanh/AppData/Local/Android/Sdk/ndk/21.4.7075529/toolchains/llvm/prebuilt/windows-x86_64/lib/gcc/i686-linux-android/4.9.x]
  ignore line: [Candidate multilib: .]
  ignore line: [@m32]
  ignore line: [Selected multilib: .]
  ignore line: [@m32]
  link line: [ "C:/Users/Thanh/AppData/Local/Android/Sdk/ndk/21.4.7075529/toolchains/llvm/prebuilt/windows-x86_64/lib/gcc/i686-linux-android/4.9.x/../../../../i686-linux-android/bin\\ld" --sysroot=C:/Users/Thanh/AppData/Local/Android/Sdk/ndk/21.4.7075529/toolchains/llvm/prebuilt/windows-x86_64/sysroot -pie -z noexecstack --warn-shared-textrel -z now -z relro --hash-style=gnu --enable-new-dtags --eh-frame-hdr -m elf_i386 -dynamic-linker /system/bin/linker -o cmTC_fc83e "C:/Users/Thanh/AppData/Local/Android/Sdk/ndk/21.4.7075529/toolchains/llvm/prebuilt/windows-x86_64/sysroot/usr/lib/i686-linux-android/23\\crtbegin_dynamic.o" "-LC:\\Users\\Thanh\\AppData\\Local\\Android\\Sdk\\ndk\\21.4.7075529\\toolchains\\llvm\\prebuilt\\windows-x86_64\\lib64\\clang\\9.0.9\\lib\\linux\\i386" -LC:/Users/Thanh/AppData/Local/Android/Sdk/ndk/21.4.7075529/toolchains/llvm/prebuilt/windows-x86_64/lib/gcc/i686-linux-android/4.9.x -LC:/Users/Thanh/AppData/Local/Android/Sdk/ndk/21.4.7075529/toolchains/llvm/prebuilt/windows-x86_64/sysroot/usr/lib/i686-linux-android/23 -LC:/Users/Thanh/AppData/Local/Android/Sdk/ndk/21.4.7075529/toolchains/llvm/prebuilt/windows-x86_64/sysroot/usr/lib/i686-linux-android -LC:/Users/Thanh/AppData/Local/Android/Sdk/ndk/21.4.7075529/toolchains/llvm/prebuilt/windows-x86_64/lib/gcc/i686-linux-android/4.9.x/../../../../i686-linux-android/lib -LC:/Users/Thanh/AppData/Local/Android/Sdk/ndk/21.4.7075529/toolchains/llvm/prebuilt/windows-x86_64/sysroot/usr/lib --exclude-libs libgcc.a --exclude-libs libgcc_real.a --exclude-libs libatomic.a --build-id --fatal-warnings --no-undefined --gc-sections CMakeFiles/cmTC_fc83e.dir/CMakeCXXCompilerABI.cpp.o -Bstatic -lc++ -Bdynamic -lm -lgcc -ldl -lc -lgcc -ldl "C:/Users/Thanh/AppData/Local/Android/Sdk/ndk/21.4.7075529/toolchains/llvm/prebuilt/windows-x86_64/sysroot/usr/lib/i686-linux-android/23\\crtend_android.o"]
    arg [C:/Users/Thanh/AppData/Local/Android/Sdk/ndk/21.4.7075529/toolchains/llvm/prebuilt/windows-x86_64/lib/gcc/i686-linux-android/4.9.x/../../../../i686-linux-android/bin\\ld] ==> ignore
    arg [--sysroot=C:/Users/Thanh/AppData/Local/Android/Sdk/ndk/21.4.7075529/toolchains/llvm/prebuilt/windows-x86_64/sysroot] ==> ignore
    arg [-pie] ==> ignore
    arg [-znoexecstack] ==> ignore
    arg [--warn-shared-textrel] ==> ignore
    arg [-znow] ==> ignore
    arg [-zrelro] ==> ignore
    arg [--hash-style=gnu] ==> ignore
    arg [--enable-new-dtags] ==> ignore
    arg [--eh-frame-hdr] ==> ignore
    arg [-m] ==> ignore
    arg [elf_i386] ==> ignore
    arg [-dynamic-linker] ==> ignore
    arg [/system/bin/linker] ==> ignore
    arg [-o] ==> ignore
    arg [cmTC_fc83e] ==> ignore
    arg [C:/Users/Thanh/AppData/Local/Android/Sdk/ndk/21.4.7075529/toolchains/llvm/prebuilt/windows-x86_64/sysroot/usr/lib/i686-linux-android/23\\crtbegin_dynamic.o] ==> ignore
    arg [-LC:\\Users\\Thanh\\AppData\\Local\\Android\\Sdk\\ndk\\21.4.7075529\\toolchains\\llvm\\prebuilt\\windows-x86_64\\lib64\\clang\\9.0.9\\lib\\linux\\i386] ==> dir [C:\\Users\\Thanh\\AppData\\Local\\Android\\Sdk\\ndk\\21.4.7075529\\toolchains\\llvm\\prebuilt\\windows-x86_64\\lib64\\clang\\9.0.9\\lib\\linux\\i386]
    arg [-LC:/Users/Thanh/AppData/Local/Android/Sdk/ndk/21.4.7075529/toolchains/llvm/prebuilt/windows-x86_64/lib/gcc/i686-linux-android/4.9.x] ==> dir [C:/Users/Thanh/AppData/Local/Android/Sdk/ndk/21.4.7075529/toolchains/llvm/prebuilt/windows-x86_64/lib/gcc/i686-linux-android/4.9.x]
    arg [-LC:/Users/Thanh/AppData/Local/Android/Sdk/ndk/21.4.7075529/toolchains/llvm/prebuilt/windows-x86_64/sysroot/usr/lib/i686-linux-android/23] ==> dir [C:/Users/Thanh/AppData/Local/Android/Sdk/ndk/21.4.7075529/toolchains/llvm/prebuilt/windows-x86_64/sysroot/usr/lib/i686-linux-android/23]
    arg [-LC:/Users/Thanh/AppData/Local/Android/Sdk/ndk/21.4.7075529/toolchains/llvm/prebuilt/windows-x86_64/sysroot/usr/lib/i686-linux-android] ==> dir [C:/Users/Thanh/AppData/Local/Android/Sdk/ndk/21.4.7075529/toolchains/llvm/prebuilt/windows-x86_64/sysroot/usr/lib/i686-linux-android]
    arg [-LC:/Users/Thanh/AppData/Local/Android/Sdk/ndk/21.4.7075529/toolchains/llvm/prebuilt/windows-x86_64/lib/gcc/i686-linux-android/4.9.x/../../../../i686-linux-android/lib] ==> dir [C:/Users/Thanh/AppData/Local/Android/Sdk/ndk/21.4.7075529/toolchains/llvm/prebuilt/windows-x86_64/lib/gcc/i686-linux-android/4.9.x/../../../../i686-linux-android/lib]
    arg [-LC:/Users/Thanh/AppData/Local/Android/Sdk/ndk/21.4.7075529/toolchains/llvm/prebuilt/windows-x86_64/sysroot/usr/lib] ==> dir [C:/Users/Thanh/AppData/Local/Android/Sdk/ndk/21.4.7075529/toolchains/llvm/prebuilt/windows-x86_64/sysroot/usr/lib]
    arg [--exclude-libs] ==> ignore
    arg [libgcc.a] ==> ignore
    arg [--exclude-libs] ==> ignore
    arg [libgcc_real.a] ==> ignore
    arg [--exclude-libs] ==> ignore
    arg [libatomic.a] ==> ignore
    arg [--build-id] ==> ignore
    arg [--fatal-warnings] ==> ignore
    arg [--no-undefined] ==> ignore
    arg [--gc-sections] ==> ignore
    arg [CMakeFiles/cmTC_fc83e.dir/CMakeCXXCompilerABI.cpp.o] ==> ignore
    arg [-Bstatic] ==> ignore
    arg [-lc++] ==> lib [c++]
    arg [-Bdynamic] ==> ignore
    arg [-lm] ==> lib [m]
    arg [-lgcc] ==> lib [gcc]
    arg [-ldl] ==> lib [dl]
    arg [-lc] ==> lib [c]
    arg [-lgcc] ==> lib [gcc]
    arg [-ldl] ==> lib [dl]
    arg [C:/Users/Thanh/AppData/Local/Android/Sdk/ndk/21.4.7075529/toolchains/llvm/prebuilt/windows-x86_64/sysroot/usr/lib/i686-linux-android/23\\crtend_android.o] ==> ignore
  collapse library dir [C:\\Users\\Thanh\\AppData\\Local\\Android\\Sdk\\ndk\\21.4.7075529\\toolchains\\llvm\\prebuilt\\windows-x86_64\\lib64\\clang\\9.0.9\\lib\\linux\\i386] ==> [C:/Users/Thanh/AppData/Local/Android/Sdk/ndk/21.4.7075529/toolchains/llvm/prebuilt/windows-x86_64/lib64/clang/9.0.9/lib/linux/i386]
  collapse library dir [C:/Users/Thanh/AppData/Local/Android/Sdk/ndk/21.4.7075529/toolchains/llvm/prebuilt/windows-x86_64/lib/gcc/i686-linux-android/4.9.x] ==> [C:/Users/Thanh/AppData/Local/Android/Sdk/ndk/21.4.7075529/toolchains/llvm/prebuilt/windows-x86_64/lib/gcc/i686-linux-android/4.9.x]
  collapse library dir [C:/Users/Thanh/AppData/Local/Android/Sdk/ndk/21.4.7075529/toolchains/llvm/prebuilt/windows-x86_64/sysroot/usr/lib/i686-linux-android/23] ==> [C:/Users/Thanh/AppData/Local/Android/Sdk/ndk/21.4.7075529/toolchains/llvm/prebuilt/windows-x86_64/sysroot/usr/lib/i686-linux-android/23]
  collapse library dir [C:/Users/Thanh/AppData/Local/Android/Sdk/ndk/21.4.7075529/toolchains/llvm/prebuilt/windows-x86_64/sysroot/usr/lib/i686-linux-android] ==> [C:/Users/Thanh/AppData/Local/Android/Sdk/ndk/21.4.7075529/toolchains/llvm/prebuilt/windows-x86_64/sysroot/usr/lib/i686-linux-android]
  collapse library dir [C:/Users/Thanh/AppData/Local/Android/Sdk/ndk/21.4.7075529/toolchains/llvm/prebuilt/windows-x86_64/lib/gcc/i686-linux-android/4.9.x/../../../../i686-linux-android/lib] ==> [C:/Users/Thanh/AppData/Local/Android/Sdk/ndk/21.4.7075529/toolchains/llvm/prebuilt/windows-x86_64/i686-linux-android/lib]
  collapse library dir [C:/Users/Thanh/AppData/Local/Android/Sdk/ndk/21.4.7075529/toolchains/llvm/prebuilt/windows-x86_64/sysroot/usr/lib] ==> [C:/Users/Thanh/AppData/Local/Android/Sdk/ndk/21.4.7075529/toolchains/llvm/prebuilt/windows-x86_64/sysroot/usr/lib]
  implicit libs: [c++;m;gcc;dl;c;gcc;dl]
  implicit dirs: [C:/Users/Thanh/AppData/Local/Android/Sdk/ndk/21.4.7075529/toolchains/llvm/prebuilt/windows-x86_64/lib64/clang/9.0.9/lib/linux/i386;C:/Users/Thanh/AppData/Local/Android/Sdk/ndk/21.4.7075529/toolchains/llvm/prebuilt/windows-x86_64/lib/gcc/i686-linux-android/4.9.x;C:/Users/Thanh/AppData/Local/Android/Sdk/ndk/21.4.7075529/toolchains/llvm/prebuilt/windows-x86_64/sysroot/usr/lib/i686-linux-android/23;C:/Users/Thanh/AppData/Local/Android/Sdk/ndk/21.4.7075529/toolchains/llvm/prebuilt/windows-x86_64/sysroot/usr/lib/i686-linux-android;C:/Users/Thanh/AppData/Local/Android/Sdk/ndk/21.4.7075529/toolchains/llvm/prebuilt/windows-x86_64/i686-linux-android/lib;C:/Users/Thanh/AppData/Local/Android/Sdk/ndk/21.4.7075529/toolchains/llvm/prebuilt/windows-x86_64/sysroot/usr/lib]
  implicit fwks: []


